<!-- Simple Icons: CC0 1.0 license -->

<svg xmlns="http://www.w3.org/2000/svg" width="24" height="24" viewBox="0 0 24 24"><path fill="#f38ba8" d="M13.88 12.685c-.4 0 .08.2.601.28c.14-.1.27-.22.39-.33a3 3 0 0 1-.99.05m2.14-.53c.23-.33.4-.69.47-1.06c-.06.27-.2.5-.33.73c-.75.47-.07-.27 0-.56c-.8 1.01-.11.6-.14.89m.781-2.05c.05-.721-.14-.501-.2-.221c.07.04.13.5.2.22M12.38.31c.2.04.45.07.42.12c.23-.05.28-.1-.43-.12m.43.12l-.15.03l.14-.01V.43m6.633 9.944c.02.64-.2.95-.38 1.5l-.35.181c-.28.54.03.35-.17.78c-.44.39-1.34 1.22-1.62 1.301c-.201 0 .14-.25.19-.34c-.591.4-.481.6-1.371.85l-.03-.06c-2.221 1.04-5.303-1.02-5.253-3.842c-.03.17-.07.13-.12.2a3.55 3.55 0 0 1 2.001-3.501a3.36 3.36 0 0 1 3.732.48a3.34 3.34 0 0 0-2.721-1.3c-1.18.01-2.281.76-2.651 1.57c-.6.38-.67 1.47-.93 1.661c-.361 2.601.66 3.722 2.38 5.042c.27.19.08.21.12.35a4.7 4.7 0 0 1-1.53-1.16c.23.33.47.66.8.91c-.55-.18-1.27-1.3-1.48-1.35c.93 1.66 3.78 2.921 5.261 2.3a6.2 6.2 0 0 1-2.33-.28c-.33-.16-.77-.51-.7-.57a5.802 5.803 0 0 0 5.902-.84c.44-.35.93-.94 1.07-.95c-.2.32.04.16-.12.44c.44-.72-.2-.3.46-1.24l.24.33c-.09-.6.74-1.321.66-2.262c.19-.3.2.3 0 .97c.29-.74.08-.85.15-1.46c.08.2.18.42.23.63c-.18-.7.2-1.2.28-1.6c-.09-.05-.28.3-.32-.53c0-.37.1-.2.14-.28c-.08-.05-.26-.32-.38-.861c.08-.13.22.33.34.34c-.08-.42-.2-.75-.2-1.08c-.34-.68-.12.1-.4-.3c-.34-1.091.3-.25.34-.74c.54.77.84 1.96.981 2.46c-.1-.6-.28-1.2-.49-1.76c.16.07-.26-1.241.21-.37A7.82 7.82 0 0 0 17.702 1.6c.18.17.42.39.33.42c-.75-.45-.62-.48-.73-.67c-.61-.25-.65.02-1.06 0C15.082.73 14.862.8 13.8.4l.05.23c-.77-.25-.9.1-1.73 0c-.05-.04.27-.14.53-.18c-.741.1-.701-.14-1.431.03c.17-.13.36-.21.55-.32c-.6.04-1.44.35-1.18.07C9.6.68 7.847 1.3 6.867 2.22L6.838 2c-.45.54-1.96 1.611-2.08 2.311l-.131.03c-.23.4-.38.85-.57 1.261c-.3.52-.45.2-.4.28c-.6 1.22-.9 2.251-1.16 3.102c.18.27 0 1.65.07 2.76c-.3 5.463 3.84 10.776 8.363 12.006c.67.23 1.65.23 2.49.25c-.99-.28-1.12-.15-2.08-.49c-.7-.32-.85-.7-1.34-1.13l.2.35c-.971-.34-.57-.42-1.361-.67l.21-.27c-.31-.03-.83-.53-.97-.81l-.34.01c-.41-.501-.63-.871-.61-1.161l-.111.2c-.13-.21-1.52-1.901-.8-1.511c-.13-.12-.31-.2-.5-.55l.14-.17c-.35-.44-.64-1.02-.62-1.2c.2.24.32.3.45.33c-.88-2.172-.93-.12-1.601-2.202l.15-.02c-.1-.16-.18-.34-.26-.51l.06-.6c-.63-.74-.18-3.102-.09-4.402c.07-.54.53-1.1.88-1.981l-.21-.04c.4-.71 2.341-2.872 3.241-2.761c.43-.55-.09 0-.18-.14c.96-.991 1.26-.7 1.901-.88c.7-.401-.6.16-.27-.151c1.2-.3.85-.7 2.421-.85c.16.1-.39.14-.52.26c1-.49 3.151-.37 4.562.27c1.63.77 3.461 3.011 3.531 5.132l.08.02c-.04.85.13 1.821-.17 2.711l.2-.42M9.54 13.236l-.05.28c.26.35.47.73.8 1.01c-.24-.47-.42-.66-.75-1.3m.62-.02c-.14-.15-.22-.34-.31-.52c.08.32.26.6.43.88zm10.945-2.382l-.07.15c-.1.76-.34 1.511-.69 2.212c.4-.73.65-1.541.75-2.362M12.45.12c.27-.1.66-.05.95-.12c-.37.03-.74.05-1.1.1zM3.006 5.142c.07.57-.43.8.11.42c.3-.66-.11-.18-.1-.42m-.64 2.661c.12-.39.15-.62.2-.84c-.35.44-.17.53-.2.83"/></svg>
